# Blender MTL File: 'None'
# Material Count: 2

newmtl Black
Ns 94.117647
Ka 1.000000 1.000000 1.000000
Kd 0.000000 0.000000 0.000000
Ks 0.500000 0.500000 0.500000
Ke 0.000000 0.000000 0.000000
Ni 1.000000
d 1.000000
illum 2
map_Kd white.png

newmtl White
Ns 94.117647
Ka 1.000000 1.000000 1.000000
Kd 1.000000 1 1
Ks 0.500000 0.500000 0.500000
Ke 0.000000 0.000000 0.000000
Ni 1.000000
d 1.000000
illum 2
map_Kd white.png
